{
  // These tasks will run in order when initializing your CodeSandbox project.
  "setupTasks": [
    {
      "name": "Install Dependencies",
      "command": "npm install"
    }
  ],

  // These tasks can be run from CodeSandbox. Running one will open a log in the app.
  "tasks": {
    "start": {
      "name": "start",
      "command": "yarn start",
      "runAtStart": true
    },
    "npm install": {
      "name": "install",
      "command": "npm install"
    },
    "node index.js": {
      "name": "node",
      "command": "node index.js"
    }
  }
}
